Image Name;Image Identifier;Group;ROI Identifier;Center[(y, x)];Area [px];Ellipticity[%];Or. Angle [deg];Maj. Axis;Min. Axis;Red
210908_Hep-2_oe_1;A;OE;1;//;//;//;//;//;//;3
210908_Hep-2_oe_1;A;OE;2;//;//;//;//;//;//;1
210908_Hep-2_oe_1;A;OE;3;//;//;//;//;//;//;1
210908_Hep-2_oe_1;A;OE;4;//;//;//;//;//;//;5
210908_Hep-2_oe_1;A;OE;5;//;//;//;//;//;//;6
210908_Hep-2_oe_1;A;OE;6;//;//;//;//;//;//;2
210908_Hep-2_oe_1;A;OE;7;//;//;//;//;//;//;3
210908_Hep-2_oe_1;A;OE;8;//;//;//;//;//;//;6
210908_Hep-2_oe_1;A;OE;9;//;//;//;//;//;//;6
210908_Hep-2_oe_1;A;OE;10;//;//;//;//;//;//;6
210908_Hep-2_oe_1;A;OE;11;//;//;//;//;//;//;7
210908_Hep-2_oe_1;A;OE;12;//;//;//;//;//;//;1
210908_Hep-2_oe_1;A;OE;13;//;//;//;//;//;//;3
210908_Hep-2_oe_1;A;OE;14;//;//;//;//;//;//;1
210908_Hep-2_oe_1;A;OE;15;//;//;//;//;//;//;5
210908_Hep-2_oe_1;A;OE;16;//;//;//;//;//;//;1
210908_Hep-2_oe_1;A;OE;17;//;//;//;//;//;//;0
210908_Hep-2_oe_1;A;OE;18;//;//;//;//;//;//;0
210908_Hep-2_oe_1;A;OE;19;//;//;//;//;//;//;0
210908_Hep-2_oe_1;A;OE;20;//;//;//;//;//;//;0
210908_Hep-2_oe_1;A;OE;21;//;//;//;//;//;//;0
210908_Hep-2_oe_1;A;OE;22;//;//;//;//;//;//;0
210908_Hep-2_oe_1;A;OE;23;//;//;//;//;//;//;0
210908_Hep-2_oe_1;A;OE;24;//;//;//;//;//;//;0
210908_Hep-2_oe_1;A;OE;25;//;//;//;//;//;//;0
210908_Hep-2_oe_1;A;OE;26;//;//;//;//;//;//;0
210908_Hep-2_oe_1;A;OE;27;//;//;//;//;//;//;0
210908_Hep-2_oe_1;A;OE;28;//;//;//;//;//;//;0
210908_Hep-2_oe_1;A;OE;29;//;//;//;//;//;//;0
210908_Hep-2_oe_1;A;OE;30;//;//;//;//;//;//;0
210908_Hep-2_oe_1;A;OE;31;//;//;//;//;//;//;0
210908_Hep-2_oe_1;A;OE;32;//;//;//;//;//;//;0
210908_Hep-2_oe_1;A;OE;33;//;//;//;//;//;//;0
210908_Hep-2_oe_1;A;OE;34;//;//;//;//;//;//;0
210908_Hep-2_oe_1;A;OE;35;//;//;//;//;//;//;0
210908_Hep-2_oe_1;A;OE;36;//;//;//;//;//;//;0
210908_Hep-2_oe_1;A;OE;37;//;//;//;//;//;//;0
210908_Hep-2_oe_1;A;OE;38;//;//;//;//;//;//;0
210908_Hep-2_oe_1;A;OE;39;//;//;//;//;//;//;0
210908_Hep-2_oe_1;A;OE;40;//;//;//;//;//;//;0
210908_Hep-2_oe_1;A;OE;41;//;//;//;//;//;//;0
210908_Hep-2_oe_1;A;OE;42;//;//;//;//;//;//;0
210908_Hep-2_oe_1;A;OE;43;//;//;//;//;//;//;0
210908_Hep-2_oe_1;A;OE;44;//;//;//;//;//;//;0
210908_Hep-2_oe_1;A;OE;45;//;//;//;//;//;//;0
210908_Hep-2_oe_1;A;OE;46;//;//;//;//;//;//;0
210908_Hep-2_oe_1;A;OE;47;//;//;//;//;//;//;0
210908_Hep-2_oe_1;A;OE;48;//;//;//;//;//;//;0
210908_Hep-2_oe_1;A;OE;49;//;//;//;//;//;//;0
210908_Hep-2_oe_1;A;OE;50;//;//;//;//;//;//;0
210908_Hep-2_oe_1;A;OE;51;//;//;//;//;//;//;0
210908_Hep-2_oe_1;A;OE;52;//;//;//;//;//;//;0
210908_Hep-2_oe_1;A;OE;53;//;//;//;//;//;//;0
210908_Hep-2_oe_1;A;OE;54;//;//;//;//;//;//;0
210908_Hep-2_oe_1;A;OE;55;//;//;//;//;//;//;0
210908_Hep-2_oe_1;A;OE;56;//;//;//;//;//;//;0
210908_Hep-2_oe_1;A;OE;57;//;//;//;//;//;//;0
210908_Hep-2_oe_1;A;OE;58;//;//;//;//;//;//;0
210908_Hep-2_oe_1;A;OE;59;//;//;//;//;//;//;0
210908_Hep-2_oe_1;A;OE;60;//;//;//;//;//;//;0
210908_Hep-2_oe_1;A;OE;61;//;//;//;//;//;//;0
210908_Hep-2_oe_1;A;OE;62;//;//;//;//;//;//;0
210908_Hep-2_oe_1;A;OE;63;//;//;//;//;//;//;0
210908_Hep-2_oe_1;A;OE;64;//;//;//;//;//;//;0
210908_Hep-2_oe_1;A;OE;65;//;//;//;//;//;//;0
210908_Hep-2_oe_1;A;OE;66;//;//;//;//;//;//;0
210908_Hep-2_oe_1;A;OE;67;//;//;//;//;//;//;0
210908_Hep-2_oe_1;A;OE;68;//;//;//;//;//;//;0
210908_Hep-2_oe_1;A;OE;69;//;//;//;//;//;//;0
210908_Hep-2_oe_1;A;OE;70;//;//;//;//;//;//;0
210908_Hep-2_oe_1;A;OE;71;//;//;//;//;//;//;0
210908_Hep-2_oe_1;A;OE;72;//;//;//;//;//;//;0
210908_Hep-2_oe_1;A;OE;73;//;//;//;//;//;//;0
210908_Hep-2_oe_1;A;OE;74;//;//;//;//;//;//;0
210908_Hep-2_oe_1;A;OE;75;//;//;//;//;//;//;0
210908_Hep-2_oe_1;A;OE;76;//;//;//;//;//;//;0
210908_Hep-2_oe_1;A;OE;77;//;//;//;//;//;//;0
210908_Hep-2_oe_1;A;OE;78;//;//;//;//;//;//;0
210908_Hep-2_oe_1;A;OE;79;//;//;//;//;//;//;0
210908_Hep-2_oe_1;A;OE;80;//;//;//;//;//;//;0
210908_Hep-2_oe_1;A;OE;81;//;//;//;//;//;//;0
210908_Hep-2_oe_1;A;OE;82;//;//;//;//;//;//;0
210908_Hep-2_oe_1;A;OE;83;//;//;//;//;//;//;0
210908_Hep-2_oe_1;A;OE;84;//;//;//;//;//;//;0
210908_Hep-2_oe_1;A;OE;85;//;//;//;//;//;//;0
210908_Hep-2_oe_1;A;OE;86;//;//;//;//;//;//;0
210908_Hep-2_oe_1;A;OE;87;//;//;//;//;//;//;0
210908_Hep-2_oe_1;A;OE;88;//;//;//;//;//;//;0
210908_Hep-2_oe_1;A;OE;89;//;//;//;//;//;//;0
210908_Hep-2_oe_1;A;OE;90;//;//;//;//;//;//;0
210908_Hep-2_oe_1;A;OE;91;//;//;//;//;//;//;0
210908_Hep-2_oe_1;A;OE;92;//;//;//;//;//;//;0
210908_Hep-2_oe_1;A;OE;93;//;//;//;//;//;//;0
210908_Hep-2_oe_1;A;OE;94;//;//;//;//;//;//;0
210908_Hep-2_oe_1;A;OE;95;//;//;//;//;//;//;0
210908_Hep-2_oe_1;A;OE;96;//;//;//;//;//;//;0
210908_Hep-2_oe_1;A;OE;97;//;//;//;//;//;//;0
210908_Hep-2_oe_1;A;OE;98;//;//;//;//;//;//;0
210908_Hep-2_oe_1;A;OE;99;//;//;//;//;//;//;0
210908_Hep-2_oe_1;A;OE;100;//;//;//;//;//;//;0
210908_Hep-2_oe_1;A;OE;101;//;//;//;//;//;//;0
210908_Hep-2_oe_1;A;OE;102;//;//;//;//;//;//;0
210908_Hep-2_oe_1;A;OE;103;//;//;//;//;//;//;0
210908_Hep-2_oe_1;A;OE;104;//;//;//;//;//;//;0
210908_Hep-2_oe_1;A;OE;105;//;//;//;//;//;//;0
210908_Hep-2_oe_1;A;OE;106;//;//;//;//;//;//;0
210908_Hep-2_oe_2;B;OE;107;//;//;//;//;//;//;1
210908_Hep-2_oe_2;B;OE;108;//;//;//;//;//;//;1
210908_Hep-2_oe_2;B;OE;109;//;//;//;//;//;//;2
210908_Hep-2_oe_2;B;OE;110;//;//;//;//;//;//;1
210908_Hep-2_oe_2;B;OE;111;//;//;//;//;//;//;2
210908_Hep-2_oe_2;B;OE;112;//;//;//;//;//;//;3
210908_Hep-2_oe_2;B;OE;113;//;//;//;//;//;//;1
210908_Hep-2_oe_2;B;OE;114;//;//;//;//;//;//;2
210908_Hep-2_oe_2;B;OE;115;//;//;//;//;//;//;2
210908_Hep-2_oe_2;B;OE;116;//;//;//;//;//;//;2
210908_Hep-2_oe_2;B;OE;117;//;//;//;//;//;//;3
210908_Hep-2_oe_2;B;OE;118;//;//;//;//;//;//;3
210908_Hep-2_oe_2;B;OE;119;//;//;//;//;//;//;3
210908_Hep-2_oe_2;B;OE;120;//;//;//;//;//;//;1
210908_Hep-2_oe_2;B;OE;121;//;//;//;//;//;//;1
210908_Hep-2_oe_2;B;OE;122;//;//;//;//;//;//;1
210908_Hep-2_oe_2;B;OE;123;//;//;//;//;//;//;2
210908_Hep-2_oe_2;B;OE;124;//;//;//;//;//;//;1
210908_Hep-2_oe_2;B;OE;125;//;//;//;//;//;//;1
210908_Hep-2_oe_2;B;OE;126;//;//;//;//;//;//;1
210908_Hep-2_oe_2;B;OE;127;//;//;//;//;//;//;2
210908_Hep-2_oe_2;B;OE;128;//;//;//;//;//;//;1
210908_Hep-2_oe_2;B;OE;129;//;//;//;//;//;//;1
210908_Hep-2_oe_2;B;OE;130;//;//;//;//;//;//;1
210908_Hep-2_oe_2;B;OE;131;//;//;//;//;//;//;1
210908_Hep-2_oe_2;B;OE;132;//;//;//;//;//;//;0
210908_Hep-2_oe_2;B;OE;133;//;//;//;//;//;//;0
210908_Hep-2_oe_2;B;OE;134;//;//;//;//;//;//;0
210908_Hep-2_oe_2;B;OE;135;//;//;//;//;//;//;0
210908_Hep-2_oe_2;B;OE;136;//;//;//;//;//;//;0
210908_Hep-2_oe_2;B;OE;137;//;//;//;//;//;//;0
210908_Hep-2_oe_2;B;OE;138;//;//;//;//;//;//;0
210908_Hep-2_oe_2;B;OE;139;//;//;//;//;//;//;0
210908_Hep-2_oe_2;B;OE;140;//;//;//;//;//;//;0
210908_Hep-2_oe_2;B;OE;141;//;//;//;//;//;//;0
210908_Hep-2_oe_2;B;OE;142;//;//;//;//;//;//;0
210908_Hep-2_oe_2;B;OE;143;//;//;//;//;//;//;0
210908_Hep-2_oe_2;B;OE;144;//;//;//;//;//;//;0
210908_Hep-2_oe_2;B;OE;145;//;//;//;//;//;//;0
210908_Hep-2_oe_2;B;OE;146;//;//;//;//;//;//;0
210908_Hep-2_oe_2;B;OE;147;//;//;//;//;//;//;0
210908_Hep-2_oe_2;B;OE;148;//;//;//;//;//;//;0
210908_Hep-2_oe_2;B;OE;149;//;//;//;//;//;//;0
210908_Hep-2_oe_2;B;OE;150;//;//;//;//;//;//;0
210908_Hep-2_oe_2;B;OE;151;//;//;//;//;//;//;0
210908_Hep-2_oe_2;B;OE;152;//;//;//;//;//;//;0
210908_Hep-2_oe_2;B;OE;153;//;//;//;//;//;//;0
210908_Hep-2_oe_2;B;OE;154;//;//;//;//;//;//;0
210908_Hep-2_oe_2;B;OE;155;//;//;//;//;//;//;0
210908_Hep-2_oe_2;B;OE;156;//;//;//;//;//;//;0
210908_Hep-2_oe_2;B;OE;157;//;//;//;//;//;//;0
210908_Hep-2_oe_2;B;OE;158;//;//;//;//;//;//;0
210908_Hep-2_oe_2;B;OE;159;//;//;//;//;//;//;0
210908_Hep-2_oe_2;B;OE;160;//;//;//;//;//;//;0
210908_Hep-2_oe_2;B;OE;161;//;//;//;//;//;//;0
210908_Hep-2_oe_2;B;OE;162;//;//;//;//;//;//;0
210908_Hep-2_oe_2;B;OE;163;//;//;//;//;//;//;0
210908_Hep-2_oe_2;B;OE;164;//;//;//;//;//;//;0
210908_Hep-2_oe_2;B;OE;165;//;//;//;//;//;//;0
210908_Hep-2_oe_2;B;OE;166;//;//;//;//;//;//;0
210908_Hep-2_oe_2;B;OE;167;//;//;//;//;//;//;0
210908_Hep-2_oe_2;B;OE;168;//;//;//;//;//;//;0
210908_Hep-2_oe_2;B;OE;169;//;//;//;//;//;//;0
210908_Hep-2_oe_2;B;OE;170;//;//;//;//;//;//;0
210908_Hep-2_oe_2;B;OE;171;//;//;//;//;//;//;0
210908_Hep-2_oe_2;B;OE;172;//;//;//;//;//;//;0
210908_Hep-2_oe_2;B;OE;173;//;//;//;//;//;//;0
210908_Hep-2_oe_2;B;OE;174;//;//;//;//;//;//;0
210908_Hep-2_oe_2;B;OE;175;//;//;//;//;//;//;0
210908_Hep-2_oe_2;B;OE;176;//;//;//;//;//;//;0
210908_Hep-2_oe_2;B;OE;177;//;//;//;//;//;//;0
210908_Hep-2_oe_2;B;OE;178;//;//;//;//;//;//;0
210908_Hep-2_oe_2;B;OE;179;//;//;//;//;//;//;0
210908_Hep-2_oe_2;B;OE;180;//;//;//;//;//;//;0
210908_Hep-2_oe_2;B;OE;181;//;//;//;//;//;//;0
210908_Hep-2_oe_2;B;OE;182;//;//;//;//;//;//;0
210908_Hep-2_oe_2;B;OE;183;//;//;//;//;//;//;0
210908_Hep-2_oe_2;B;OE;184;//;//;//;//;//;//;0
210908_Hep-2_oe_2;B;OE;185;//;//;//;//;//;//;0
210908_Hep-2_oe_2;B;OE;186;//;//;//;//;//;//;0
210908_Hep-2_oe_2;B;OE;187;//;//;//;//;//;//;0
210908_Hep-2_oe_2;B;OE;188;//;//;//;//;//;//;0
210908_Hep-2_oe_2;B;OE;189;//;//;//;//;//;//;0
210908_Hep-2_oe_2;B;OE;190;//;//;//;//;//;//;0
210908_Hep-2_oe_2;B;OE;191;//;//;//;//;//;//;0
210908_Hep-2_oe_2;B;OE;192;//;//;//;//;//;//;0
210908_Hep-2_oe_2;B;OE;193;//;//;//;//;//;//;0
210908_Hep-2_oe_2;B;OE;194;//;//;//;//;//;//;0
210908_Hep-2_oe_2;B;OE;195;//;//;//;//;//;//;0
210908_Hep-2_oe_2;B;OE;196;//;//;//;//;//;//;0
210908_Hep-2_oe_2;B;OE;197;//;//;//;//;//;//;0
210908_Hep-2_oe_2;B;OE;198;//;//;//;//;//;//;0
210908_Hep-2_oe_2;B;OE;199;//;//;//;//;//;//;0
210908_Hep-2_oe_2;B;OE;200;//;//;//;//;//;//;0
210908_Hep-2_oe_2;B;OE;201;//;//;//;//;//;//;0
210908_Hep-2_oe_2;B;OE;202;//;//;//;//;//;//;0
210908_Hep-2_oe_2;B;OE;203;//;//;//;//;//;//;0
210908_Hep-2_oe_2;B;OE;204;//;//;//;//;//;//;0
210908_Hep-2_oe_2;B;OE;205;//;//;//;//;//;//;0
210908_Hep-2_oe_2;B;OE;206;//;//;//;//;//;//;0
210908_Hep-2_oe_2;B;OE;207;//;//;//;//;//;//;0
210908_Hep-2_oe_2;B;OE;208;//;//;//;//;//;//;0
210908_Hep-2_oe_2;B;OE;209;//;//;//;//;//;//;0
210908_Hep-2_oe_2;B;OE;210;//;//;//;//;//;//;0
210908_Hep-2_oe_2;B;OE;211;//;//;//;//;//;//;0
210908_Hep-2_oe_2;B;OE;212;//;//;//;//;//;//;0
210908_Hep-2_oe_2;B;OE;213;//;//;//;//;//;//;0
210908_Hep-2_oe_2;B;OE;214;//;//;//;//;//;//;0
210908_Hep-2_oe_2;B;OE;215;//;//;//;//;//;//;0
210908_Hep-2_oe_2;B;OE;216;//;//;//;//;//;//;0
210908_Hep-2_oe_2;B;OE;217;//;//;//;//;//;//;0
210908_Hep-2_oe_2;B;OE;218;//;//;//;//;//;//;0
210908_Hep-2_oe_2;B;OE;219;//;//;//;//;//;//;0
210908_Hep-2_oe_2;B;OE;220;//;//;//;//;//;//;0
210908_Hep-2_oe_2;B;OE;221;//;//;//;//;//;//;0
210908_Hep-2_oe_2;B;OE;222;//;//;//;//;//;//;0
210908_Hep-2_oe_2;B;OE;223;//;//;//;//;//;//;0
210908_Hep-2_oe_2;B;OE;224;//;//;//;//;//;//;0
210908_Hep-2_oe_2;B;OE;225;//;//;//;//;//;//;0
210908_Hep-2_oe_2;B;OE;226;//;//;//;//;//;//;0
210908_Hep-2_oe_2;B;OE;227;//;//;//;//;//;//;0
210908_Hep-2_oe_2;B;OE;228;//;//;//;//;//;//;0
210908_Hep-2_oe_2;B;OE;229;//;//;//;//;//;//;0
210908_Hep-2_oe_2;B;OE;230;//;//;//;//;//;//;0
210908_Hep-2_oe_2;B;OE;231;//;//;//;//;//;//;0
210908_Hep-2_oe_2;B;OE;232;//;//;//;//;//;//;0
210908_Hep-2_oe_2;B;OE;233;//;//;//;//;//;//;0
210908_Hep-2_oe_2;B;OE;234;//;//;//;//;//;//;0
210908_Hep-2_oe_2;B;OE;235;//;//;//;//;//;//;0
210908_Hep-2_oe_2;B;OE;236;//;//;//;//;//;//;0
210908_Hep-2_oe_2;B;OE;237;//;//;//;//;//;//;0
210908_Hep-2_oe_2;B;OE;238;//;//;//;//;//;//;0
210908_Hep-2_oe_2;B;OE;239;//;//;//;//;//;//;0
210908_Hep-2_oe_2;B;OE;240;//;//;//;//;//;//;0
210908_Hep-2_oe_2;B;OE;241;//;//;//;//;//;//;0
210908_Hep-2_oe_2;B;OE;242;//;//;//;//;//;//;0
210908_Hep-2_oe_2;B;OE;243;//;//;//;//;//;//;0
210908_Hep-2_oe_2;B;OE;244;//;//;//;//;//;//;0
210908_Hep-2_oe_2;B;OE;245;//;//;//;//;//;//;0
210908_Hep-2_oe_2;B;OE;246;//;//;//;//;//;//;0
210908_Hep-2_oe_2;B;OE;247;//;//;//;//;//;//;0
210908_Hep-2_oe_2;B;OE;248;//;//;//;//;//;//;0
210908_Hep-2_oe_2;B;OE;249;//;//;//;//;//;//;0
210908_Hep-2_oe_2;B;OE;250;//;//;//;//;//;//;0
210908_Hep-2_oe_2;B;OE;251;//;//;//;//;//;//;0
210908_Hep-2_oe_2;B;OE;252;//;//;//;//;//;//;0
210908_Hep-2_oe_2;B;OE;253;//;//;//;//;//;//;0
210908_Hep-2_oe_2;B;OE;254;//;//;//;//;//;//;0
210908_Hep-2_oe_2;B;OE;255;//;//;//;//;//;//;0
210908_Hep-2_oe_2;B;OE;256;//;//;//;//;//;//;0
210908_Hep-2_oe_2;B;OE;257;//;//;//;//;//;//;0
210908_Hep-2_oe_2;B;OE;258;//;//;//;//;//;//;0
210908_Hep-2_oe_2;B;OE;259;//;//;//;//;//;//;0
210908_Hep-2_oe_2;B;OE;260;//;//;//;//;//;//;0
210908_Hep-2_oe_2;B;OE;261;//;//;//;//;//;//;0
210908_Hep-2_oe_2;B;OE;262;//;//;//;//;//;//;0
210908_Hep-2_oe_2;B;OE;263;//;//;//;//;//;//;0
210908_Hep-2_oe_2;B;OE;264;//;//;//;//;//;//;0
210908_Hep-2_oe_2;B;OE;265;//;//;//;//;//;//;0
210908_Hep-2_oe_2;B;OE;266;//;//;//;//;//;//;0
210908_Hep-2_oe_2;B;OE;267;//;//;//;//;//;//;0
210908_Hep-2_oe_2;B;OE;268;//;//;//;//;//;//;0
210908_Hep-2_oe_2;B;OE;269;//;//;//;//;//;//;0
210908_Hep-2_oe_2;B;OE;270;//;//;//;//;//;//;0
210908_Hep-2_oe_2;B;OE;271;//;//;//;//;//;//;0
210908_Hep-2_oe_2;B;OE;272;//;//;//;//;//;//;0
210908_Hep-2_oe_2;B;OE;273;//;//;//;//;//;//;0
210908_Hep-2_oe_2;B;OE;274;//;//;//;//;//;//;0
210908_Hep-2_oe_2;B;OE;275;//;//;//;//;//;//;0
210908_Hep-2_oe_2;B;OE;276;//;//;//;//;//;//;0
210908_Hep-2_oe_2;B;OE;277;//;//;//;//;//;//;0
210908_Hep-2_oe_2;B;OE;278;//;//;//;//;//;//;0
210908_Hep-2_oe_2;B;OE;279;//;//;//;//;//;//;0
210908_Hep-2_oe_2;B;OE;280;//;//;//;//;//;//;0
210908_Hep-2_oe_2;B;OE;281;//;//;//;//;//;//;0
210908_Hep-2_oe_2;B;OE;282;//;//;//;//;//;//;0
210908_Hep-2_oe_2;B;OE;283;//;//;//;//;//;//;0
210908_Hep-2_oe_2;B;OE;284;//;//;//;//;//;//;0
210908_Hep-2_oe_2;B;OE;285;//;//;//;//;//;//;0
210908_Hep-2_oe_2;B;OE;286;//;//;//;//;//;//;0
210908_Hep-2_oe_2;B;OE;287;//;//;//;//;//;//;0
210908_Hep-2_oe_2;B;OE;288;//;//;//;//;//;//;0
210908_Hep-2_oe_2;B;OE;289;//;//;//;//;//;//;0
210908_Hep-2_oe_2;B;OE;290;//;//;//;//;//;//;0
210908_Hep-2_oe_2;B;OE;291;//;//;//;//;//;//;0
210908_Hep-2_oe_2;B;OE;292;//;//;//;//;//;//;0
210908_Hep-2_oe_2;B;OE;293;//;//;//;//;//;//;0
210908_Hep-2_oe_2;B;OE;294;//;//;//;//;//;//;0
210908_Hep-2_oe_2;B;OE;295;//;//;//;//;//;//;0
210908_Hep-2_oe_2;B;OE;296;//;//;//;//;//;//;0
210908_Hep-2_oe_2;B;OE;297;//;//;//;//;//;//;0
210908_Hep-2_oe_2;B;OE;298;//;//;//;//;//;//;0
210908_Hep-2_oe_2;B;OE;299;//;//;//;//;//;//;0
210908_Hep-2_oe_2;B;OE;300;//;//;//;//;//;//;0
210908_Hep-2_oe_2;B;OE;301;//;//;//;//;//;//;0
210908_Hep-2_oe_2;B;OE;302;//;//;//;//;//;//;0
210908_Hep-2_oe_2;B;OE;303;//;//;//;//;//;//;0
210908_Hep-2_oe_2;B;OE;304;//;//;//;//;//;//;0
210908_Hep-2_oe_2;B;OE;305;//;//;//;//;//;//;0
210908_Hep-2_oe_2;B;OE;306;//;//;//;//;//;//;0
210908_Hep-2_oe_2;B;OE;307;//;//;//;//;//;//;0
210908_Hep-2_oe_2;B;OE;308;//;//;//;//;//;//;0
210908_Hep-2_oe_2;B;OE;309;//;//;//;//;//;//;0
210908_Hep-2_oe_2;B;OE;310;//;//;//;//;//;//;0
210908_Hep-2_oe_2;B;OE;311;//;//;//;//;//;//;0
210908_Hep-2_oe_2;B;OE;312;//;//;//;//;//;//;0
210908_Hep-2_oe_2;B;OE;313;//;//;//;//;//;//;0
210908_Hep-2_oe_2;B;OE;314;//;//;//;//;//;//;0
210908_Hep-2_oe_2;B;OE;315;//;//;//;//;//;//;0
210908_Hep-2_oe_2;B;OE;316;//;//;//;//;//;//;0
210908_Hep-2_oe_2;B;OE;317;//;//;//;//;//;//;0
210908_Hep-2_oe_2;B;OE;318;//;//;//;//;//;//;0
210908_Hep-2_oe_2;B;OE;319;//;//;//;//;//;//;0
210908_Hep-2_oe_2;B;OE;320;//;//;//;//;//;//;0
210908_Hep-2_oe_2;B;OE;321;//;//;//;//;//;//;0
210908_Hep-2_oe_2;B;OE;322;//;//;//;//;//;//;0
210908_Hep-2_oe_2;B;OE;323;//;//;//;//;//;//;0
210908_Hep-2_oe_2;B;OE;324;//;//;//;//;//;//;0
210908_Hep-2_oe_2;B;OE;325;//;//;//;//;//;//;0
210908_Hep-2_oe_2;B;OE;326;//;//;//;//;//;//;0
210908_Hep-2_oe_2;B;OE;327;//;//;//;//;//;//;0
210908_Hep-2_oe_2;B;OE;328;//;//;//;//;//;//;0
210908_Hep-2_oe_2;B;OE;329;//;//;//;//;//;//;0
210908_Hep-2_oe_2;C;OE;330;//;//;//;//;//;//;1
210908_Hep-2_oe_2;C;OE;331;//;//;//;//;//;//;1
210908_Hep-2_oe_2;C;OE;332;//;//;//;//;//;//;1
210908_Hep-2_oe_2;C;OE;333;//;//;//;//;//;//;1
210908_Hep-2_oe_2;C;OE;334;//;//;//;//;//;//;1
210908_Hep-2_oe_2;C;OE;335;//;//;//;//;//;//;1
210908_Hep-2_oe_2;C;OE;336;//;//;//;//;//;//;1
210908_Hep-2_oe_2;C;OE;337;//;//;//;//;//;//;1
210908_Hep-2_oe_2;C;OE;338;//;//;//;//;//;//;1
210908_Hep-2_oe_2;C;OE;339;//;//;//;//;//;//;1
210908_Hep-2_oe_2;C;OE;340;//;//;//;//;//;//;1
210908_Hep-2_oe_2;C;OE;341;//;//;//;//;//;//;1
210908_Hep-2_oe_2;C;OE;342;//;//;//;//;//;//;1
210908_Hep-2_oe_2;C;OE;343;//;//;//;//;//;//;1
210908_Hep-2_oe_2;C;OE;344;//;//;//;//;//;//;1
210908_Hep-2_oe_2;C;OE;345;//;//;//;//;//;//;1
210908_Hep-2_oe_2;C;OE;346;//;//;//;//;//;//;1
210908_Hep-2_oe_2;C;OE;347;//;//;//;//;//;//;1
210908_Hep-2_oe_2;C;OE;348;//;//;//;//;//;//;1
210908_Hep-2_oe_2;C;OE;349;//;//;//;//;//;//;1
210908_Hep-2_oe_2;C;OE;350;//;//;//;//;//;//;1
210908_Hep-2_oe_2;C;OE;351;//;//;//;//;//;//;1
210908_Hep-2_oe_2;C;OE;352;//;//;//;//;//;//;1
210908_Hep-2_oe_2;C;OE;353;//;//;//;//;//;//;0
210908_Hep-2_oe_2;C;OE;354;//;//;//;//;//;//;0
210908_Hep-2_oe_2;C;OE;355;//;//;//;//;//;//;0
210908_Hep-2_oe_2;C;OE;356;//;//;//;//;//;//;0
210908_Hep-2_oe_2;C;OE;357;//;//;//;//;//;//;0
210908_Hep-2_oe_2;C;OE;358;//;//;//;//;//;//;0
210908_Hep-2_oe_2;C;OE;359;//;//;//;//;//;//;0
210908_Hep-2_oe_2;C;OE;360;//;//;//;//;//;//;0
210908_Hep-2_oe_2;C;OE;361;//;//;//;//;//;//;0
210908_Hep-2_oe_2;C;OE;362;//;//;//;//;//;//;0
210908_Hep-2_oe_2;C;OE;363;//;//;//;//;//;//;0
210908_Hep-2_oe_2;C;OE;364;//;//;//;//;//;//;0
210908_Hep-2_oe_2;C;OE;365;//;//;//;//;//;//;0
210908_Hep-2_oe_2;C;OE;366;//;//;//;//;//;//;0
210908_Hep-2_oe_2;C;OE;367;//;//;//;//;//;//;0
210908_Hep-2_oe_2;C;OE;368;//;//;//;//;//;//;0
210908_Hep-2_oe_2;C;OE;369;//;//;//;//;//;//;0
210908_Hep-2_oe_2;C;OE;370;//;//;//;//;//;//;0
210908_Hep-2_oe_2;C;OE;371;//;//;//;//;//;//;0
210908_Hep-2_oe_2;C;OE;372;//;//;//;//;//;//;0
210908_Hep-2_oe_2;C;OE;373;//;//;//;//;//;//;0
210908_Hep-2_oe_2;C;OE;374;//;//;//;//;//;//;0
210908_Hep-2_oe_2;C;OE;375;//;//;//;//;//;//;0
210908_Hep-2_oe_2;C;OE;376;//;//;//;//;//;//;0
210908_Hep-2_oe_2;C;OE;377;//;//;//;//;//;//;0
210908_Hep-2_oe_2;C;OE;378;//;//;//;//;//;//;0
210908_Hep-2_oe_2;C;OE;379;//;//;//;//;//;//;0
210908_Hep-2_oe_2;C;OE;380;//;//;//;//;//;//;0
210908_Hep-2_oe_2;C;OE;381;//;//;//;//;//;//;0
210908_Hep-2_oe_2;C;OE;382;//;//;//;//;//;//;0
210908_Hep-2_oe_2;C;OE;383;//;//;//;//;//;//;0
210908_Hep-2_oe_2;C;OE;384;//;//;//;//;//;//;0
210908_Hep-2_oe_2;C;OE;385;//;//;//;//;//;//;0
210908_Hep-2_oe_2;C;OE;386;//;//;//;//;//;//;0
210908_Hep-2_oe_2;C;OE;387;//;//;//;//;//;//;0
210908_Hep-2_oe_2;C;OE;388;//;//;//;//;//;//;0
210908_Hep-2_oe_2;C;OE;389;//;//;//;//;//;//;0
210908_Hep-2_oe_2;C;OE;390;//;//;//;//;//;//;0
210908_Hep-2_oe_2;C;OE;391;//;//;//;//;//;//;0
210908_Hep-2_oe_2;C;OE;392;//;//;//;//;//;//;0
210908_Hep-2_oe_2;C;OE;393;//;//;//;//;//;//;0
210908_Hep-2_oe_2;C;OE;394;//;//;//;//;//;//;0
210908_Hep-2_oe_2;C;OE;395;//;//;//;//;//;//;0
210908_Hep-2_oe_2;C;OE;396;//;//;//;//;//;//;0
210908_Hep-2_oe_2;C;OE;397;//;//;//;//;//;//;0
210908_Hep-2_oe_2;C;OE;398;//;//;//;//;//;//;0
210908_Hep-2_oe_2;C;OE;399;//;//;//;//;//;//;0
210908_Hep-2_oe_2;C;OE;400;//;//;//;//;//;//;0
210908_Hep-2_oe_2;C;OE;401;//;//;//;//;//;//;0
210908_Hep-2_oe_2;C;OE;402;//;//;//;//;//;//;0
210908_Hep-2_oe_2;C;OE;403;//;//;//;//;//;//;0
210908_Hep-2_oe_2;C;OE;404;//;//;//;//;//;//;0
210908_Hep-2_oe_2;C;OE;405;//;//;//;//;//;//;0
210908_Hep-2_oe_2;C;OE;406;//;//;//;//;//;//;0
210908_Hep-2_oe_2;C;OE;407;//;//;//;//;//;//;0
210908_Hep-2_oe_2;C;OE;408;//;//;//;//;//;//;0
210908_Hep-2_oe_2;C;OE;409;//;//;//;//;//;//;0
210908_Hep-2_oe_2;C;OE;410;//;//;//;//;//;//;0
210908_Hep-2_oe_2;C;OE;411;//;//;//;//;//;//;0
210908_Hep-2_oe_2;C;OE;412;//;//;//;//;//;//;0
210908_Hep-2_oe_2;C;OE;413;//;//;//;//;//;//;0
210908_Hep-2_oe_2;C;OE;414;//;//;//;//;//;//;0
210908_Hep-2_oe_2;C;OE;415;//;//;//;//;//;//;0
210908_Hep-2_oe_2;C;OE;416;//;//;//;//;//;//;0
210908_Hep-2_oe_2;C;OE;417;//;//;//;//;//;//;0
210908_Hep-2_oe_2;C;OE;418;//;//;//;//;//;//;0
210908_Hep-2_oe_2;C;OE;419;//;//;//;//;//;//;0
210908_Hep-2_oe_2;C;OE;420;//;//;//;//;//;//;0
210908_Hep-2_oe_2;C;OE;421;//;//;//;//;//;//;0
210908_Hep-2_oe_2;C;OE;422;//;//;//;//;//;//;0
210908_Hep-2_oe_2;C;OE;423;//;//;//;//;//;//;0
210908_Hep-2_oe_2;C;OE;424;//;//;//;//;//;//;0
210908_Hep-2_oe_2;C;OE;425;//;//;//;//;//;//;0
210908_Hep-2_oe_2;C;OE;426;//;//;//;//;//;//;0
210908_Hep-2_oe_2;C;OE;427;//;//;//;//;//;//;0
210908_Hep-2_oe_2;C;OE;428;//;//;//;//;//;//;0
210908_Hep-2_oe_2;C;OE;429;//;//;//;//;//;//;0
210908_Hep-2_oe_2;C;OE;430;//;//;//;//;//;//;0
210908_Hep-2_oe_2;C;OE;431;//;//;//;//;//;//;0
210908_Hep-2_oe_2;C;OE;432;//;//;//;//;//;//;0
210908_Hep-2_oe_2;C;OE;433;//;//;//;//;//;//;0
210908_Hep-2_oe_2;C;OE;434;//;//;//;//;//;//;0
210908_Hep-2_oe_2;C;OE;435;//;//;//;//;//;//;0
210908_Hep-2_oe_2;C;OE;436;//;//;//;//;//;//;0
210908_Hep-2_oe_2;C;OE;437;//;//;//;//;//;//;0
210908_Hep-2_oe_2;C;OE;438;//;//;//;//;//;//;0
210908_Hep-2_oe_2;C;OE;439;//;//;//;//;//;//;0
210908_Hep-2_oe_2;C;OE;440;//;//;//;//;//;//;0
210908_Hep-2_oe_2;C;OE;441;//;//;//;//;//;//;0
210908_Hep-2_oe_2;C;OE;442;//;//;//;//;//;//;0
210908_Hep-2_oe_2;C;OE;443;//;//;//;//;//;//;0
210908_Hep-2_oe_2;C;OE;444;//;//;//;//;//;//;0
210908_Hep-2_oe_2;C;OE;445;//;//;//;//;//;//;0
210908_Hep-2_oe_2;C;OE;446;//;//;//;//;//;//;0
210908_Hep-2_oe_2;C;OE;447;//;//;//;//;//;//;0
210908_Hep-2_oe_2;C;OE;448;//;//;//;//;//;//;0
210908_Hep-2_oe_2;C;OE;449;//;//;//;//;//;//;0
210908_Hep-2_oe_2;C;OE;450;//;//;//;//;//;//;0
210908_Hep-2_oe_2;C;OE;451;//;//;//;//;//;//;0
210908_Hep-2_oe_2;C;OE;452;//;//;//;//;//;//;0
210908_Hep-2_oe_2;C;OE;453;//;//;//;//;//;//;0
210908_Hep-2_oe_2;C;OE;454;//;//;//;//;//;//;0
210908_Hep-2_oe_2;C;OE;455;//;//;//;//;//;//;0
210908_Hep-2_oe_2;C;OE;456;//;//;//;//;//;//;0
210908_Hep-2_oe_2;C;OE;457;//;//;//;//;//;//;0
210908_Hep-2_oe_2;C;OE;458;//;//;//;//;//;//;0
210908_Hep-2_oe_2;C;OE;459;//;//;//;//;//;//;0
210908_Hep-2_oe_2;C;OE;460;//;//;//;//;//;//;0
210908_Hep-2_oe_2;C;OE;461;//;//;//;//;//;//;0
210908_Hep-2_oe_2;C;OE;462;//;//;//;//;//;//;0
210908_Hep-2_oe_2;C;OE;463;//;//;//;//;//;//;0
210908_Hep-2_oe_2;C;OE;464;//;//;//;//;//;//;0
210908_Hep-2_oe_2;C;OE;465;//;//;//;//;//;//;0
210908_Hep-2_oe_2;C;OE;466;//;//;//;//;//;//;0
210908_Hep-2_oe_2;C;OE;467;//;//;//;//;//;//;0
210908_Hep-2_oe_2;C;OE;468;//;//;//;//;//;//;0
210908_Hep-2_oe_2;C;OE;469;//;//;//;//;//;//;0
210908_Hep-2_oe_2;C;OE;470;//;//;//;//;//;//;0
210908_Hep-2_oe_2;C;OE;471;//;//;//;//;//;//;0
210908_Hep-2_oe_2;C;OE;472;//;//;//;//;//;//;0
210908_Hep-2_oe_2;C;OE;473;//;//;//;//;//;//;0
210908_Hep-2_oe_2;C;OE;474;//;//;//;//;//;//;0
210908_Hep-2_oe_2;C;OE;475;//;//;//;//;//;//;0
210908_Hep-2_oe_2;C;OE;476;//;//;//;//;//;//;0
210908_Hep-2_oe_2;C;OE;477;//;//;//;//;//;//;0
210908_Hep-2_oe_2;C;OE;478;//;//;//;//;//;//;0
210908_Hep-2_oe_2;C;OE;479;//;//;//;//;//;//;0
210908_Hep-2_oe_2;C;OE;480;//;//;//;//;//;//;0
210908_Hep-2_oe_2;C;OE;481;//;//;//;//;//;//;0
210908_Hep-2_oe_2;C;OE;482;//;//;//;//;//;//;0
210908_Hep-2_oe_2;C;OE;483;//;//;//;//;//;//;0
210908_Hep-2_oe_2;C;OE;484;//;//;//;//;//;//;0
210908_Hep-2_oe_2;C;OE;485;//;//;//;//;//;//;0
210908_Hep-2_oe_2;C;OE;486;//;//;//;//;//;//;0
210908_Hep-2_oe_2;C;OE;487;//;//;//;//;//;//;0
210908_Hep-2_oe_2;C;OE;488;//;//;//;//;//;//;0
210908_Hep-2_oe_2;C;OE;489;//;//;//;//;//;//;0
210908_Hep-2_oe_2;C;OE;490;//;//;//;//;//;//;0
210908_Hep-2_oe_2;C;OE;491;//;//;//;//;//;//;0
210908_Hep-2_oe_2;C;OE;492;//;//;//;//;//;//;0
210908_Hep-2_oe_2;C;OE;493;//;//;//;//;//;//;0
210908_Hep-2_oe_2;C;OE;494;//;//;//;//;//;//;0
210908_Hep-2_oe_2;C;OE;495;//;//;//;//;//;//;0
210908_Hep-2_oe_2;C;OE;496;//;//;//;//;//;//;0
210908_Hep-2_oe_2;C;OE;497;//;//;//;//;//;//;0
210908_Hep-2_oe_2;C;OE;498;//;//;//;//;//;//;0
210908_Hep-2_oe_2;C;OE;499;//;//;//;//;//;//;0
210908_Hep-2_oe_2;C;OE;500;//;//;//;//;//;//;0
210908_Hep-2_oe_2;C;OE;501;//;//;//;//;//;//;0
210908_Hep-2_oe_2;C;OE;502;//;//;//;//;//;//;0
210908_Hep-2_oe_2;C;OE;503;//;//;//;//;//;//;0
210908_Hep-2_oe_2;C;OE;504;//;//;//;//;//;//;0
210908_Hep-2_oe_2;C;OE;505;//;//;//;//;//;//;0
210908_Hep-2_oe_2;C;OE;506;//;//;//;//;//;//;0
210908_Hep-2_oe_2;C;OE;507;//;//;//;//;//;//;0
210908_Hep-2_oe_2;C;OE;508;//;//;//;//;//;//;0
210908_Hep-2_oe_2;C;OE;509;//;//;//;//;//;//;0
210908_Hep-2_oe_2;C;OE;510;//;//;//;//;//;//;0
210908_Hep-2_oe_2;C;OE;511;//;//;//;//;//;//;0
210908_Hep-2_oe_2;C;OE;512;//;//;//;//;//;//;0
210908_Hep-2_oe_2;C;OE;513;//;//;//;//;//;//;0
210908_Hep-2_oe_2;C;OE;514;//;//;//;//;//;//;0
210908_Hep-2_oe_2;C;OE;515;//;//;//;//;//;//;0
210908_Hep-2_oe_2;C;OE;516;//;//;//;//;//;//;0
210908_Hep-2_oe_2;C;OE;517;//;//;//;//;//;//;0
210908_Hep-2_oe_2;C;OE;518;//;//;//;//;//;//;0
210908_Hep-2_oe_2;C;OE;519;//;//;//;//;//;//;0
210908_Hep-2_oe_2;C;OE;520;//;//;//;//;//;//;0
210908_Hep-2_oe_2;C;OE;521;//;//;//;//;//;//;0
210908_Hep-2_oe_2;C;OE;522;//;//;//;//;//;//;0
210908_Hep-2_oe_2;C;OE;523;//;//;//;//;//;//;0
210908_Hep-2_oe_2;C;OE;524;//;//;//;//;//;//;0
210908_Hep-2_oe_2;C;OE;525;//;//;//;//;//;//;0
210908_Hep-2_oe_2;C;OE;526;//;//;//;//;//;//;0
210908_Hep-2_oe_2;C;OE;527;//;//;//;//;//;//;0
210908_Hep-2_oe_2;C;OE;528;//;//;//;//;//;//;0
210908_Hep-2_oe_2;C;OE;529;//;//;//;//;//;//;0
